{
	"info": {
		"_postman_id": "3edc674b-8639-4f01-9f09-3df4516ebe1d",
		"name": "SubSection Api",
		"schema": "https://schema.getpostman.com/json/collection/v2.1.0/collection.json"
	},
	"item": [
		{
			"name": "create subsection",
			"request": {
				"method": "POST",
				"header": [
					{
						"key": "Authorization",
						"value": "Bearer eyJhbGciOiJIUzI1NiJ9.eyJzdWIiOiJ1c2VyMkBlbWFpbC5jb20iLCJleHAiOjE2NTA5MzExNzgsImlhdCI6MTY0OTQ1OTk0OX0.S9QBhTzl1c98RQIBGDpveZq08RDAFIsT9KoUjgLxzVQ",
						"type": "default"
					},
					{
						"key": "Content-Type",
						"value": "application/json",
						"type": "default"
					}
				],
				"body": {
					"mode": "raw",
					"raw": "{\n    \"subSectionName\":\"subsection 3-34\",\n    \"subSectionDescription\":\"subsection description\"\n}"
				},
				"url": {
					"raw": "localhost:8080/instructor/courses/section/34/subsection",
					"host": [
						"localhost"
					],
					"port": "8080",
					"path": [
						"instructor",
						"courses",
						"section",
						"34",
						"subsection"
					]
				}
			},
			"response": []
		},
		{
			"name": "get subsection in a section",
			"request": {
				"method": "GET",
				"header": [
					{
						"key": "Authorization",
						"value": "Bearer eyJhbGciOiJIUzI1NiJ9.eyJzdWIiOiJ1c2VyMkBlbWFpbC5jb20iLCJleHAiOjE2NTM4NDYzMDUsImlhdCI6MTY1MjM3NTA3Nn0.X7bgRINHky82QOs-tWACUizcMGiA-h0-nYSs3z5-R48",
						"type": "default"
					}
				],
				"url": {
					"raw": "localhost:8080/instructor/courses/section/12/subsection",
					"host": [
						"localhost"
					],
					"port": "8080",
					"path": [
						"instructor",
						"courses",
						"section",
						"12",
						"subsection"
					]
				}
			},
			"response": []
		},
		{
			"name": "update subsection",
			"request": {
				"method": "PUT",
				"header": [
					{
						"key": "Authorization",
						"value": "Bearer eyJhbGciOiJIUzI1NiJ9.eyJzdWIiOiJ1c2VyMkBlbWFpbC5jb20iLCJleHAiOjE2NTA5MzExNzgsImlhdCI6MTY0OTQ1OTk0OX0.S9QBhTzl1c98RQIBGDpveZq08RDAFIsT9KoUjgLxzVQ",
						"type": "default"
					},
					{
						"key": "Content-Type",
						"value": "application/json",
						"type": "default"
					}
				],
				"body": {
					"mode": "raw",
					"raw": "{\n    \"subSectionName\":\"subsection 0-34 update\",\n    \"subSectionDescription\":\"subsection description\"\n}"
				},
				"url": {
					"raw": "localhost:8080/instructor/courses/section/34/subsection/41",
					"host": [
						"localhost"
					],
					"port": "8080",
					"path": [
						"instructor",
						"courses",
						"section",
						"34",
						"subsection",
						"41"
					]
				}
			},
			"response": []
		},
		{
			"name": "delete subsection",
			"request": {
				"method": "DELETE",
				"header": [
					{
						"key": "Authorization",
						"value": "Bearer eyJhbGciOiJIUzI1NiJ9.eyJzdWIiOiJ1c2VyMkBlbWFpbC5jb20iLCJleHAiOjE2NTA5MzExNzgsImlhdCI6MTY0OTQ1OTk0OX0.S9QBhTzl1c98RQIBGDpveZq08RDAFIsT9KoUjgLxzVQ",
						"type": "default"
					}
				],
				"url": {
					"raw": "localhost:8080/instructor/courses/section/34/subsection/47",
					"host": [
						"localhost"
					],
					"port": "8080",
					"path": [
						"instructor",
						"courses",
						"section",
						"34",
						"subsection",
						"47"
					]
				}
			},
			"response": []
		},
		{
			"name": "upload file",
			"request": {
				"method": "POST",
				"header": [
					{
						"key": "Authorization",
						"value": "Bearer eyJhbGciOiJIUzI1NiJ9.eyJzdWIiOiJ1c2VyMkBlbWFpbC5jb20iLCJleHAiOjE2NTA5MzExNzgsImlhdCI6MTY0OTQ1OTk0OX0.S9QBhTzl1c98RQIBGDpveZq08RDAFIsT9KoUjgLxzVQ",
						"type": "default"
					},
					{
						"warning": "This is a duplicate header and will be overridden by the Content-Type header generated by Postman.",
						"key": "Content-Type",
						"value": "multipart/form-data",
						"type": "default"
					}
				],
				"body": {
					"mode": "formdata",
					"formdata": [
						{
							"key": "file",
							"type": "file",
							"src": "/home/siraz/Videos/test/1MB_Test2.mp4"
						}
					]
				},
				"url": {
					"raw": "localhost:8080/instructor/courses/section/subsection/41/upload",
					"host": [
						"localhost"
					],
					"port": "8080",
					"path": [
						"instructor",
						"courses",
						"section",
						"subsection",
						"41",
						"upload"
					]
				}
			},
			"response": []
		}
	]
}